<?xml version="1.0" encoding="UTF-8"?>
<gpx xmlns="http://www.topografix.com/GPX/1/0" xmlns:osmand="https://osmand.net" xmlns:xsi="http://www.w3.org/2001/XMLSchema-instance" xsi:schemaLocation="http://www.topografix.com/GPX/1/1 http://www.topografix.com/GPX/1/1/gpx.xsd" version="1.0" creator="OsmAnd~ 4.2.7">
  <name>2022-12-25_13-10_Sun</name>
  <time>2022-12-25T07:52:14Z</time>
  <trk>
    <trkseg>
      <trkpt lat="13.3732273" lon="77.2072352">
        <ele>987.6</ele>
        <time>2022-12-25T07:40:16Z</time>
        <speed>0.7</speed>
        <hdop>3.2</hdop>
      </trkpt>
      <trkpt lat="13.3732264" lon="77.2072254">
        <ele>987.9</ele>
        <time>2022-12-25T07:40:17Z</time>
        <speed>0.7</speed>
        <hdop>3.2</hdop>
      </trkpt>
      <trkpt lat="13.3732305" lon="77.2072208">
        <ele>986.9</ele>
        <time>2022-12-25T07:40:18Z</time>
        <speed>0.8</speed>
        <hdop>3.2</hdop>
      </trkpt>
      <trkpt lat="13.3732289" lon="77.2072043">
        <ele>984.8</ele>
        <time>2022-12-25T07:40:19Z</time>
        <speed>1.3</speed>
        <hdop>3.2</hdop>
      </trkpt>
      <trkpt lat="13.3732286" lon="77.2071968">
        <ele>985.5</ele>
        <time>2022-12-25T07:40:20Z</time>
        <speed>0.6</speed>
        <hdop>3.2</hdop>
      </trkpt>
      <trkpt lat="13.3732345" lon="77.2071923">
        <ele>986.9</ele>
        <time>2022-12-25T07:40:21Z</time>
        <speed>0.6</speed>
        <hdop>3.2</hdop>
      </trkpt>
      <trkpt lat="13.373243" lon="77.2071874">
        <ele>988.0</ele>
        <time>2022-12-25T07:40:22Z</time>
        <speed>0.9</speed>
        <hdop>3.2</hdop>
      </trkpt>
      <trkpt lat="13.37325" lon="77.2071853">
        <ele>988.1</ele>
        <time>2022-12-25T07:40:23Z</time>
        <speed>0.5</speed>
        <hdop>3.2</hdop>
      </trkpt>
      <trkpt lat="13.3732532" lon="77.2071818">
        <ele>988.8</ele>
        <time>2022-12-25T07:40:24Z</time>
        <speed>0.6</speed>
        <hdop>3.2</hdop>
      </trkpt>
      <trkpt lat="13.373256" lon="77.2071774">
        <ele>989.4</ele>
        <time>2022-12-25T07:40:25Z</time>
        <speed>0.5</speed>
        <hdop>4.3</hdop>
      </trkpt>
      <trkpt lat="13.3732651" lon="77.2071772">
        <ele>989.4</ele>
        <time>2022-12-25T07:40:26Z</time>
        <speed>0</speed>
        <hdop>3.2</hdop>
      </trkpt>
      <trkpt lat="13.3732699" lon="77.2071729">
        <ele>990.0</ele>
        <time>2022-12-25T07:40:27Z</time>
        <speed>0.6</speed>
        <hdop>4.3</hdop>
      </trkpt>
      <trkpt lat="13.3732727" lon="77.207168">
        <ele>990.3</ele>
        <time>2022-12-25T07:40:28Z</time>
        <speed>0.5</speed>
        <hdop>4.3</hdop>
      </trkpt>
      <trkpt lat="13.3732707" lon="77.2071574">
        <ele>987.5</ele>
        <time>2022-12-25T07:40:29Z</time>
        <speed>0.9</speed>
        <hdop>4.3</hdop>
      </trkpt>
      <trkpt lat="13.3732242" lon="77.2070516">
        <ele>987.1</ele>
        <time>2022-12-25T07:40:40Z</time>
        <speed>0.5</speed>
        <hdop>3.2</hdop>
      </trkpt>
      <trkpt lat="13.3732257" lon="77.2070545">
        <ele>987.3</ele>
        <time>2022-12-25T07:40:42Z</time>
        <speed>0</speed>
        <hdop>3.2</hdop>
      </trkpt>
      <trkpt lat="13.3732301" lon="77.2070502">
        <ele>987.5</ele>
        <time>2022-12-25T07:40:43Z</time>
        <speed>0.6</speed>
        <hdop>3.2</hdop>
      </trkpt>
      <trkpt lat="13.3732349" lon="77.2070461">
        <ele>987.5</ele>
        <time>2022-12-25T07:40:44Z</time>
        <speed>0.8</speed>
        <hdop>3.2</hdop>
      </trkpt>
      <trkpt lat="13.3732352" lon="77.207039">
        <ele>987.5</ele>
        <time>2022-12-25T07:40:45Z</time>
        <speed>0.8</speed>
        <hdop>3.2</hdop>
      </trkpt>
      <trkpt lat="13.373244" lon="77.2070401">
        <ele>988.5</ele>
        <time>2022-12-25T07:40:46Z</time>
        <speed>0.6</speed>
        <hdop>3.2</hdop>
      </trkpt>
      <trkpt lat="13.3732457" lon="77.2070379">
        <ele>988.8</ele>
        <time>2022-12-25T07:40:47Z</time>
        <speed>0.4</speed>
        <hdop>3.2</hdop>
      </trkpt>
      <trkpt lat="13.3732475" lon="77.2070313">
        <ele>989.3</ele>
        <time>2022-12-25T07:40:48Z</time>
        <speed>0.6</speed>
        <hdop>3.2</hdop>
      </trkpt>
      <trkpt lat="13.3732467" lon="77.2070259">
        <ele>989.3</ele>
        <time>2022-12-25T07:40:49Z</time>
        <speed>0.5</speed>
        <hdop>3.2</hdop>
      </trkpt>
      <trkpt lat="13.373245" lon="77.2070194">
        <ele>989.8</ele>
        <time>2022-12-25T07:40:50Z</time>
        <speed>0.9</speed>
        <hdop>3.2</hdop>
      </trkpt>
      <trkpt lat="13.3736621" lon="77.2067915">
        <ele>991.5</ele>
        <time>2022-12-25T07:42:21Z</time>
        <speed>0.7</speed>
        <hdop>3.2</hdop>
      </trkpt>
      <trkpt lat="13.3736611" lon="77.2067914">
        <ele>991.3</ele>
        <time>2022-12-25T07:42:23Z</time>
        <speed>0</speed>
        <hdop>3.2</hdop>
      </trkpt>
      <trkpt lat="13.3736638" lon="77.2067879">
        <ele>990.8</ele>
        <time>2022-12-25T07:42:24Z</time>
        <speed>0.4</speed>
        <hdop>3.2</hdop>
      </trkpt>
      <trkpt lat="13.3736646" lon="77.2067892">
        <ele>990.7</ele>
        <time>2022-12-25T07:42:25Z</time>
        <speed>0.4</speed>
        <hdop>3.2</hdop>
      </trkpt>
      <trkpt lat="13.3736632" lon="77.2067867">
        <ele>990.0</ele>
        <time>2022-12-25T07:42:26Z</time>
        <speed>0.4</speed>
        <hdop>3.2</hdop>
      </trkpt>
      <trkpt lat="13.373663" lon="77.2067872">
        <ele>989.9</ele>
        <time>2022-12-25T07:42:27Z</time>
        <speed>0.5</speed>
        <hdop>3.2</hdop>
      </trkpt>
      <trkpt lat="13.3736606" lon="77.2067872">
        <ele>989.7</ele>
        <time>2022-12-25T07:42:28Z</time>
        <speed>0</speed>
        <hdop>3.2</hdop>
      </trkpt>
      <trkpt lat="13.3736898" lon="77.2066786">
        <ele>989.1</ele>
        <time>2022-12-25T07:42:48Z</time>
        <speed>0.4</speed>
        <hdop>3.2</hdop>
      </trkpt>
      <trkpt lat="13.373699" lon="77.2066686">
        <ele>989.0</ele>
        <time>2022-12-25T07:42:49Z</time>
        <speed>0.8</speed>
        <hdop>3.2</hdop>
      </trkpt>
      <trkpt lat="13.3736989" lon="77.2066618">
        <ele>988.1</ele>
        <time>2022-12-25T07:42:50Z</time>
        <speed>0.5</speed>
        <hdop>4.3</hdop>
      </trkpt>
      <trkpt lat="13.3736919" lon="77.2066611">
        <ele>986.3</ele>
        <time>2022-12-25T07:42:51Z</time>
        <speed>0.5</speed>
        <hdop>3.2</hdop>
      </trkpt>
      <trkpt lat="13.3736893" lon="77.2066602">
        <ele>986.3</ele>
        <time>2022-12-25T07:42:52Z</time>
        <speed>0.3</speed>
        <hdop>3.2</hdop>
      </trkpt>
      <trkpt lat="13.3736911" lon="77.2066607">
        <ele>986.1</ele>
        <time>2022-12-25T07:42:53Z</time>
        <speed>0.2</speed>
        <hdop>3.2</hdop>
      </trkpt>
      <trkpt lat="13.3736699" lon="77.2066458">
        <ele>983.7</ele>
        <time>2022-12-25T07:42:54Z</time>
        <speed>1.1</speed>
        <hdop>3.2</hdop>
      </trkpt>
      <trkpt lat="13.3736694" lon="77.2066371">
        <ele>983.4</ele>
        <time>2022-12-25T07:42:55Z</time>
        <speed>0.8</speed>
        <hdop>3.2</hdop>
      </trkpt>
      <trkpt lat="13.3736656" lon="77.206577">
        <ele>984.8</ele>
        <time>2022-12-25T07:43:04Z</time>
        <speed>0.8</speed>
        <hdop>4.3</hdop>
      </trkpt>
      <trkpt lat="13.3737206" lon="77.2064954">
        <ele>986.1</ele>
        <time>2022-12-25T07:43:20Z</time>
        <speed>0.7</speed>
        <hdop>3.2</hdop>
      </trkpt>
      <trkpt lat="13.373723" lon="77.206492">
        <ele>986.9</ele>
        <time>2022-12-25T07:43:22Z</time>
        <speed>0</speed>
        <hdop>3.2</hdop>
      </trkpt>
      <trkpt lat="13.3737243" lon="77.2064946">
        <ele>987.1</ele>
        <time>2022-12-25T07:43:23Z</time>
        <speed>0</speed>
        <hdop>3.2</hdop>
      </trkpt>
      <trkpt lat="13.373726" lon="77.2064964">
        <ele>987.2</ele>
        <time>2022-12-25T07:43:24Z</time>
        <speed>0</speed>
        <hdop>3.2</hdop>
      </trkpt>
      <trkpt lat="13.3737258" lon="77.2064965">
        <ele>987.2</ele>
        <time>2022-12-25T07:43:25Z</time>
        <speed>0</speed>
        <hdop>3.2</hdop>
      </trkpt>
      <trkpt lat="13.3737603" lon="77.2064656">
        <ele>996.9</ele>
        <time>2022-12-25T07:44:03Z</time>
        <speed>0</speed>
        <hdop>3.2</hdop>
      </trkpt>
      <trkpt lat="13.3737564" lon="77.2064692">
        <ele>996.3</ele>
        <time>2022-12-25T07:44:04Z</time>
        <speed>0.3</speed>
        <hdop>3.2</hdop>
      </trkpt>
      <trkpt lat="13.373745" lon="77.2064683">
        <ele>996.5</ele>
        <time>2022-12-25T07:44:05Z</time>
        <speed>0.2</speed>
        <hdop>3.2</hdop>
      </trkpt>
      <trkpt lat="13.3737377" lon="77.2064699">
        <ele>995.3</ele>
        <time>2022-12-25T07:44:06Z</time>
        <speed>0</speed>
        <hdop>3.2</hdop>
      </trkpt>
      <trkpt lat="13.3737339" lon="77.206473">
        <ele>994.6</ele>
        <time>2022-12-25T07:44:07Z</time>
        <speed>0</speed>
        <hdop>3.2</hdop>
      </trkpt>
      <trkpt lat="13.3737331" lon="77.2064731">
        <ele>994.2</ele>
        <time>2022-12-25T07:44:08Z</time>
        <speed>0</speed>
        <hdop>3.2</hdop>
      </trkpt>
      <trkpt lat="13.3737287" lon="77.2064736">
        <ele>993.8</ele>
        <time>2022-12-25T07:44:09Z</time>
        <speed>0</speed>
        <hdop>3.2</hdop>
      </trkpt>
      <trkpt lat="13.3737337" lon="77.2064714">
        <ele>994.6</ele>
        <time>2022-12-25T07:44:10Z</time>
        <speed>0</speed>
        <hdop>3.2</hdop>
      </trkpt>
      <trkpt lat="13.3737364" lon="77.2064721">
        <ele>994.7</ele>
        <time>2022-12-25T07:44:11Z</time>
        <speed>0</speed>
        <hdop>3.2</hdop>
      </trkpt>
      <trkpt lat="13.3737372" lon="77.2064717">
        <ele>995.7</ele>
        <time>2022-12-25T07:44:12Z</time>
        <speed>0</speed>
        <hdop>3.2</hdop>
      </trkpt>
      <trkpt lat="13.3737382" lon="77.2064698">
        <ele>995.4</ele>
        <time>2022-12-25T07:44:13Z</time>
        <speed>0</speed>
        <hdop>3.2</hdop>
      </trkpt>
      <trkpt lat="13.3738287" lon="77.2064162">
        <ele>990.3</ele>
        <time>2022-12-25T07:44:44Z</time>
        <speed>0.8</speed>
        <hdop>3.2</hdop>
      </trkpt>
      <trkpt lat="13.37385" lon="77.2064175">
        <ele>990.6</ele>
        <time>2022-12-25T07:44:45Z</time>
        <speed>1.6</speed>
        <hdop>3.2</hdop>
      </trkpt>
      <trkpt lat="13.373867" lon="77.2064136">
        <ele>991.5</ele>
        <time>2022-12-25T07:44:46Z</time>
        <speed>1.9</speed>
        <hdop>3.2</hdop>
      </trkpt>
      <trkpt lat="13.3738852" lon="77.2064142">
        <ele>991.7</ele>
        <time>2022-12-25T07:44:47Z</time>
        <speed>1.9</speed>
        <hdop>3.2</hdop>
      </trkpt>
      <trkpt lat="13.3738966" lon="77.2064134">
        <ele>991.9</ele>
        <time>2022-12-25T07:44:48Z</time>
        <speed>1.3</speed>
        <hdop>3.2</hdop>
      </trkpt>
      <trkpt lat="13.3739093" lon="77.206412">
        <ele>991.7</ele>
        <time>2022-12-25T07:44:49Z</time>
        <speed>1</speed>
        <hdop>3.2</hdop>
      </trkpt>
      <trkpt lat="13.373921" lon="77.2064106">
        <ele>991.6</ele>
        <time>2022-12-25T07:44:50Z</time>
        <speed>1</speed>
        <hdop>3.2</hdop>
      </trkpt>
      <trkpt lat="13.3739315" lon="77.20641">
        <ele>992.7</ele>
        <time>2022-12-25T07:44:51Z</time>
        <speed>0.9</speed>
        <hdop>3.2</hdop>
      </trkpt>
      <trkpt lat="13.3740778" lon="77.2064158">
        <ele>873.6</ele>
        <time>2022-12-25T07:45:07Z</time>
        <speed>0.8</speed>
        <hdop>3.2</hdop>
      </trkpt>
      <trkpt lat="13.37409" lon="77.2064281">
        <ele>997.1</ele>
        <time>2022-12-25T07:45:08Z</time>
        <speed>1</speed>
        <hdop>3.2</hdop>
      </trkpt>
      <trkpt lat="13.3741053" lon="77.2064371">
        <ele>995.7</ele>
        <time>2022-12-25T07:45:09Z</time>
        <speed>1.7</speed>
        <hdop>3.2</hdop>
      </trkpt>
      <trkpt lat="13.3740904" lon="77.2064451">
        <ele>995.6</ele>
        <time>2022-12-25T07:45:10Z</time>
        <speed>1.1</speed>
        <hdop>3.2</hdop>
      </trkpt>
      <trkpt lat="13.3741022" lon="77.2064548">
        <ele>996.2</ele>
        <time>2022-12-25T07:45:11Z</time>
        <speed>1.4</speed>
        <hdop>3.2</hdop>
      </trkpt>
      <trkpt lat="13.3741129" lon="77.2064623">
        <ele>996.9</ele>
        <time>2022-12-25T07:45:12Z</time>
        <speed>1.2</speed>
        <hdop>3.2</hdop>
      </trkpt>
      <trkpt lat="13.3741204" lon="77.2064655">
        <ele>996.9</ele>
        <time>2022-12-25T07:45:13Z</time>
        <speed>0.8</speed>
        <hdop>3.2</hdop>
      </trkpt>
      <trkpt lat="13.374128" lon="77.2064678">
        <ele>996.7</ele>
        <time>2022-12-25T07:45:14Z</time>
        <speed>0.9</speed>
        <hdop>3.2</hdop>
      </trkpt>
      <trkpt lat="13.3741366" lon="77.20647">
        <ele>996.9</ele>
        <time>2022-12-25T07:45:15Z</time>
        <speed>0.9</speed>
        <hdop>3.2</hdop>
      </trkpt>
      <trkpt lat="13.3741453" lon="77.2064717">
        <ele>996.8</ele>
        <time>2022-12-25T07:45:16Z</time>
        <speed>0.9</speed>
        <hdop>3.2</hdop>
      </trkpt>
      <trkpt lat="13.3741545" lon="77.2064737">
        <ele>996.5</ele>
        <time>2022-12-25T07:45:17Z</time>
        <speed>1</speed>
        <hdop>3.2</hdop>
      </trkpt>
      <trkpt lat="13.3741604" lon="77.2064754">
        <ele>996.2</ele>
        <time>2022-12-25T07:45:18Z</time>
        <speed>0.2</speed>
        <hdop>3.2</hdop>
      </trkpt>
      <trkpt lat="13.3741592" lon="77.2064788">
        <ele>995.4</ele>
        <time>2022-12-25T07:45:19Z</time>
        <speed>0</speed>
        <hdop>3.2</hdop>
      </trkpt>
      <trkpt lat="13.3741579" lon="77.2064812">
        <ele>994.3</ele>
        <time>2022-12-25T07:45:20Z</time>
        <speed>0.2</speed>
        <hdop>3.2</hdop>
      </trkpt>
      <trkpt lat="13.3741612" lon="77.2064819">
        <ele>994.0</ele>
        <time>2022-12-25T07:45:21Z</time>
        <speed>0.5</speed>
        <hdop>3.2</hdop>
      </trkpt>
      <trkpt lat="13.3741682" lon="77.2064826">
        <ele>994.3</ele>
        <time>2022-12-25T07:45:22Z</time>
        <speed>1</speed>
        <hdop>3.2</hdop>
      </trkpt>
      <trkpt lat="13.3741762" lon="77.2064863">
        <ele>994.0</ele>
        <time>2022-12-25T07:45:23Z</time>
        <speed>1</speed>
        <hdop>3.2</hdop>
      </trkpt>
      <trkpt lat="13.3741836" lon="77.206492">
        <ele>994.8</ele>
        <time>2022-12-25T07:45:24Z</time>
        <speed>0.9</speed>
        <hdop>3.2</hdop>
      </trkpt>
      <trkpt lat="13.3741888" lon="77.2064975">
        <ele>995.7</ele>
        <time>2022-12-25T07:45:25Z</time>
        <speed>0.9</speed>
        <hdop>3.2</hdop>
      </trkpt>
      <trkpt lat="13.3741937" lon="77.2065035">
        <ele>997.1</ele>
        <time>2022-12-25T07:45:26Z</time>
        <speed>0.9</speed>
        <hdop>3.2</hdop>
      </trkpt>
      <trkpt lat="13.3742021" lon="77.2065075">
        <ele>997.9</ele>
        <time>2022-12-25T07:45:27Z</time>
        <speed>1</speed>
        <hdop>3.2</hdop>
      </trkpt>
      <trkpt lat="13.374211" lon="77.206511">
        <ele>997.2</ele>
        <time>2022-12-25T07:45:28Z</time>
        <speed>1</speed>
        <hdop>3.2</hdop>
      </trkpt>
      <trkpt lat="13.3742208" lon="77.2065146">
        <ele>996.8</ele>
        <time>2022-12-25T07:45:29Z</time>
        <speed>1</speed>
        <hdop>3.2</hdop>
      </trkpt>
      <trkpt lat="13.374232" lon="77.2065174">
        <ele>996.5</ele>
        <time>2022-12-25T07:45:30Z</time>
        <speed>1</speed>
        <hdop>3.2</hdop>
      </trkpt>
      <trkpt lat="13.3742437" lon="77.2065212">
        <ele>996.4</ele>
        <time>2022-12-25T07:45:31Z</time>
        <speed>1</speed>
        <hdop>3.2</hdop>
      </trkpt>
      <trkpt lat="13.3742546" lon="77.2065247">
        <ele>995.5</ele>
        <time>2022-12-25T07:45:32Z</time>
        <speed>1</speed>
        <hdop>3.2</hdop>
      </trkpt>
      <trkpt lat="13.3742669" lon="77.2065271">
        <ele>996.2</ele>
        <time>2022-12-25T07:45:33Z</time>
        <speed>1</speed>
        <hdop>3.2</hdop>
      </trkpt>
      <trkpt lat="13.37428" lon="77.2065294">
        <ele>996.6</ele>
        <time>2022-12-25T07:45:34Z</time>
        <speed>1</speed>
        <hdop>3.2</hdop>
      </trkpt>
      <trkpt lat="13.3742933" lon="77.2065306">
        <ele>996.7</ele>
        <time>2022-12-25T07:45:35Z</time>
        <speed>1</speed>
        <hdop>3.2</hdop>
      </trkpt>
      <trkpt lat="13.3743061" lon="77.2065311">
        <ele>996.3</ele>
        <time>2022-12-25T07:45:36Z</time>
        <speed>1</speed>
        <hdop>3.2</hdop>
      </trkpt>
      <trkpt lat="13.3743188" lon="77.2065318">
        <ele>996.6</ele>
        <time>2022-12-25T07:45:37Z</time>
        <speed>1</speed>
        <hdop>3.2</hdop>
      </trkpt>
      <trkpt lat="13.3743315" lon="77.2065323">
        <ele>996.7</ele>
        <time>2022-12-25T07:45:38Z</time>
        <speed>1</speed>
        <hdop>3.2</hdop>
      </trkpt>
      <trkpt lat="13.3743443" lon="77.2065332">
        <ele>996.3</ele>
        <time>2022-12-25T07:45:39Z</time>
        <speed>1</speed>
        <hdop>3.2</hdop>
      </trkpt>
      <trkpt lat="13.3743566" lon="77.2065349">
        <ele>996.1</ele>
        <time>2022-12-25T07:45:40Z</time>
        <speed>1</speed>
        <hdop>3.2</hdop>
      </trkpt>
      <trkpt lat="13.3743691" lon="77.2065378">
        <ele>996.2</ele>
        <time>2022-12-25T07:45:41Z</time>
        <speed>1</speed>
        <hdop>3.2</hdop>
      </trkpt>
      <trkpt lat="13.3743816" lon="77.2065419">
        <ele>995.6</ele>
        <time>2022-12-25T07:45:42Z</time>
        <speed>1</speed>
        <hdop>3.2</hdop>
      </trkpt>
      <trkpt lat="13.3743946" lon="77.2065463">
        <ele>995.8</ele>
        <time>2022-12-25T07:45:43Z</time>
        <speed>1</speed>
        <hdop>3.2</hdop>
      </trkpt>
      <trkpt lat="13.3744084" lon="77.2065506">
        <ele>995.6</ele>
        <time>2022-12-25T07:45:44Z</time>
        <speed>1</speed>
        <hdop>3.2</hdop>
      </trkpt>
      <trkpt lat="13.3744211" lon="77.2065554">
        <ele>994.7</ele>
        <time>2022-12-25T07:45:45Z</time>
        <speed>1</speed>
        <hdop>3.2</hdop>
      </trkpt>
      <trkpt lat="13.3744341" lon="77.206559">
        <ele>996.0</ele>
        <time>2022-12-25T07:45:46Z</time>
        <speed>1</speed>
        <hdop>3.2</hdop>
      </trkpt>
      <trkpt lat="13.3744452" lon="77.2065614">
        <ele>996.1</ele>
        <time>2022-12-25T07:45:47Z</time>
        <speed>1</speed>
        <hdop>3.2</hdop>
      </trkpt>
      <trkpt lat="13.3744562" lon="77.2065628">
        <ele>996.5</ele>
        <time>2022-12-25T07:45:48Z</time>
        <speed>1</speed>
        <hdop>3.2</hdop>
      </trkpt>
      <trkpt lat="13.3744679" lon="77.2065641">
        <ele>997.1</ele>
        <time>2022-12-25T07:45:49Z</time>
        <speed>1</speed>
        <hdop>3.2</hdop>
      </trkpt>
      <trkpt lat="13.3744782" lon="77.206565">
        <ele>997.3</ele>
        <time>2022-12-25T07:45:50Z</time>
        <speed>1</speed>
        <hdop>3.2</hdop>
      </trkpt>
      <trkpt lat="13.3744875" lon="77.2065653">
        <ele>997.7</ele>
        <time>2022-12-25T07:45:51Z</time>
        <speed>1</speed>
        <hdop>3.2</hdop>
      </trkpt>
      <trkpt lat="13.3744966" lon="77.2065658">
        <ele>997.1</ele>
        <time>2022-12-25T07:45:52Z</time>
        <speed>0.9</speed>
        <hdop>3.2</hdop>
      </trkpt>
      <trkpt lat="13.374504" lon="77.2065662">
        <ele>997.3</ele>
        <time>2022-12-25T07:45:53Z</time>
        <speed>0.5</speed>
        <hdop>3.2</hdop>
      </trkpt>
      <trkpt lat="13.3745084" lon="77.2065663">
        <ele>997.8</ele>
        <time>2022-12-25T07:45:54Z</time>
        <speed>0.3</speed>
        <hdop>3.2</hdop>
      </trkpt>
      <trkpt lat="13.3745111" lon="77.2065661">
        <ele>998.1</ele>
        <time>2022-12-25T07:45:55Z</time>
        <speed>0.2</speed>
        <hdop>3.2</hdop>
      </trkpt>
      <trkpt lat="13.3745135" lon="77.2065636">
        <ele>998.0</ele>
        <time>2022-12-25T07:45:56Z</time>
        <speed>0</speed>
        <hdop>3.2</hdop>
      </trkpt>
      <trkpt lat="13.3745143" lon="77.2065624">
        <ele>996.5</ele>
        <time>2022-12-25T07:45:57Z</time>
        <speed>0</speed>
        <hdop>3.2</hdop>
      </trkpt>
      <trkpt lat="13.3745158" lon="77.2065617">
        <ele>997.1</ele>
        <time>2022-12-25T07:45:58Z</time>
        <speed>0</speed>
        <hdop>3.2</hdop>
      </trkpt>
      <trkpt lat="13.3745163" lon="77.2065614">
        <ele>997.4</ele>
        <time>2022-12-25T07:45:59Z</time>
        <speed>0</speed>
        <hdop>3.2</hdop>
      </trkpt>
      <trkpt lat="13.3745158" lon="77.2065614">
        <ele>997.6</ele>
        <time>2022-12-25T07:46:00Z</time>
        <speed>0</speed>
        <hdop>3.2</hdop>
      </trkpt>
      <trkpt lat="13.374514" lon="77.206562">
        <ele>997.7</ele>
        <time>2022-12-25T07:46:01Z</time>
        <speed>0</speed>
        <hdop>3.2</hdop>
      </trkpt>
      <trkpt lat="13.3745128" lon="77.2065616">
        <ele>997.7</ele>
        <time>2022-12-25T07:46:02Z</time>
        <speed>0</speed>
        <hdop>3.2</hdop>
      </trkpt>
      <trkpt lat="13.374512" lon="77.2065606">
        <ele>997.9</ele>
        <time>2022-12-25T07:46:03Z</time>
        <speed>0</speed>
        <hdop>3.2</hdop>
      </trkpt>
      <trkpt lat="13.3745114" lon="77.2065605">
        <ele>997.7</ele>
        <time>2022-12-25T07:46:04Z</time>
        <speed>0</speed>
        <hdop>3.2</hdop>
      </trkpt>
      <trkpt lat="13.3745118" lon="77.2065604">
        <ele>997.4</ele>
        <time>2022-12-25T07:46:05Z</time>
        <speed>0</speed>
        <hdop>3.2</hdop>
      </trkpt>
      <trkpt lat="13.3745125" lon="77.20656">
        <ele>997.5</ele>
        <time>2022-12-25T07:46:06Z</time>
        <speed>0</speed>
        <hdop>3.2</hdop>
      </trkpt>
      <trkpt lat="13.3745133" lon="77.2065592">
        <ele>997.9</ele>
        <time>2022-12-25T07:46:07Z</time>
        <speed>0</speed>
        <hdop>3.2</hdop>
      </trkpt>
      <trkpt lat="13.3745142" lon="77.2065588">
        <ele>998.0</ele>
        <time>2022-12-25T07:46:08Z</time>
        <speed>0</speed>
        <hdop>3.2</hdop>
      </trkpt>
      <trkpt lat="13.374515" lon="77.2065585">
        <ele>998.1</ele>
        <time>2022-12-25T07:46:09Z</time>
        <speed>0</speed>
        <hdop>3.2</hdop>
      </trkpt>
      <trkpt lat="13.3745156" lon="77.206558">
        <ele>998.2</ele>
        <time>2022-12-25T07:46:10Z</time>
        <speed>0</speed>
        <hdop>3.2</hdop>
      </trkpt>
      <trkpt lat="13.3745171" lon="77.2065574">
        <ele>998.6</ele>
        <time>2022-12-25T07:46:11Z</time>
        <speed>0</speed>
        <hdop>9.6</hdop>
      </trkpt>
      <trkpt lat="13.3745187" lon="77.2065575">
        <ele>998.7</ele>
        <time>2022-12-25T07:46:12Z</time>
        <speed>0</speed>
        <hdop>9.6</hdop>
      </trkpt>
      <trkpt lat="13.3745196" lon="77.2065584">
        <ele>998.5</ele>
        <time>2022-12-25T07:46:13Z</time>
        <speed>0</speed>
        <hdop>9.6</hdop>
      </trkpt>
      <trkpt lat="13.3745198" lon="77.20656">
        <ele>998.8</ele>
        <time>2022-12-25T07:46:14Z</time>
        <speed>0</speed>
        <hdop>9.6</hdop>
      </trkpt>
      <trkpt lat="13.3745194" lon="77.206556">
        <ele>999.6</ele>
        <time>2022-12-25T07:46:15Z</time>
        <speed>0.9</speed>
        <hdop>9.6</hdop>
      </trkpt>
      <trkpt lat="13.3745183" lon="77.2065532">
        <ele>998.5</ele>
        <time>2022-12-25T07:46:16Z</time>
        <speed>0</speed>
        <hdop>3.2</hdop>
      </trkpt>
      <trkpt lat="13.374517" lon="77.2065559">
        <ele>997.7</ele>
        <time>2022-12-25T07:46:17Z</time>
        <speed>0</speed>
        <hdop>3.2</hdop>
      </trkpt>
      <trkpt lat="13.3745138" lon="77.206565">
        <ele>996.5</ele>
        <time>2022-12-25T07:46:18Z</time>
        <speed>0</speed>
        <hdop>3.2</hdop>
      </trkpt>
      <trkpt lat="13.3745117" lon="77.2065706">
        <ele>996.3</ele>
        <time>2022-12-25T07:46:19Z</time>
        <speed>0</speed>
        <hdop>3.2</hdop>
      </trkpt>
      <trkpt lat="13.3745109" lon="77.2065744">
        <ele>996.1</ele>
        <time>2022-12-25T07:46:20Z</time>
        <speed>0</speed>
        <hdop>3.2</hdop>
      </trkpt>
      <trkpt lat="13.3745102" lon="77.2065764">
        <ele>996.2</ele>
        <time>2022-12-25T07:46:21Z</time>
        <speed>0</speed>
        <hdop>3.2</hdop>
      </trkpt>
      <trkpt lat="13.37451" lon="77.2065771">
        <ele>996.5</ele>
        <time>2022-12-25T07:46:22Z</time>
        <speed>0</speed>
        <hdop>3.2</hdop>
      </trkpt>
      <trkpt lat="13.3745093" lon="77.2065774">
        <ele>996.7</ele>
        <time>2022-12-25T07:46:23Z</time>
        <speed>0</speed>
        <hdop>3.2</hdop>
      </trkpt>
      <trkpt lat="13.374509" lon="77.2065768">
        <ele>996.8</ele>
        <time>2022-12-25T07:46:24Z</time>
        <speed>0</speed>
        <hdop>3.2</hdop>
      </trkpt>
      <trkpt lat="13.3745086" lon="77.2065763">
        <ele>996.8</ele>
        <time>2022-12-25T07:46:25Z</time>
        <speed>0</speed>
        <hdop>3.2</hdop>
      </trkpt>
      <trkpt lat="13.3745076" lon="77.2065761">
        <ele>997.0</ele>
        <time>2022-12-25T07:46:26Z</time>
        <speed>0</speed>
        <hdop>3.2</hdop>
      </trkpt>
      <trkpt lat="13.3745068" lon="77.2065754">
        <ele>997.2</ele>
        <time>2022-12-25T07:46:27Z</time>
        <speed>0</speed>
        <hdop>3.2</hdop>
      </trkpt>
      <trkpt lat="13.3745069" lon="77.206573">
        <ele>997.8</ele>
        <time>2022-12-25T07:46:28Z</time>
        <speed>0.3</speed>
        <hdop>3.2</hdop>
      </trkpt>
      <trkpt lat="13.3745069" lon="77.2065701">
        <ele>997.9</ele>
        <time>2022-12-25T07:46:29Z</time>
        <speed>0.2</speed>
        <hdop>3.2</hdop>
      </trkpt>
      <trkpt lat="13.3745056" lon="77.2065706">
        <ele>998.0</ele>
        <time>2022-12-25T07:46:30Z</time>
        <speed>0.3</speed>
        <hdop>3.2</hdop>
      </trkpt>
      <trkpt lat="13.3745048" lon="77.2065724">
        <ele>998.2</ele>
        <time>2022-12-25T07:46:31Z</time>
        <speed>0.2</speed>
        <hdop>3.2</hdop>
      </trkpt>
      <trkpt lat="13.3745046" lon="77.206575">
        <ele>997.9</ele>
        <time>2022-12-25T07:46:32Z</time>
        <speed>0.3</speed>
        <hdop>3.2</hdop>
      </trkpt>
      <trkpt lat="13.3745053" lon="77.2065783">
        <ele>997.6</ele>
        <time>2022-12-25T07:46:33Z</time>
        <speed>0.5</speed>
        <hdop>3.2</hdop>
      </trkpt>
      <trkpt lat="13.3745072" lon="77.2065816">
        <ele>997.9</ele>
        <time>2022-12-25T07:46:34Z</time>
        <speed>0.4</speed>
        <hdop>3.2</hdop>
      </trkpt>
      <trkpt lat="13.3745099" lon="77.2065833">
        <ele>998.0</ele>
        <time>2022-12-25T07:46:35Z</time>
        <speed>0.3</speed>
        <hdop>3.2</hdop>
      </trkpt>
      <trkpt lat="13.3745116" lon="77.2065812">
        <ele>997.9</ele>
        <time>2022-12-25T07:46:36Z</time>
        <speed>0</speed>
        <hdop>3.2</hdop>
      </trkpt>
      <trkpt lat="13.374514" lon="77.2065797">
        <ele>997.7</ele>
        <time>2022-12-25T07:46:37Z</time>
        <speed>0.3</speed>
        <hdop>3.2</hdop>
      </trkpt>
      <trkpt lat="13.3745176" lon="77.206577">
        <ele>997.8</ele>
        <time>2022-12-25T07:46:38Z</time>
        <speed>0.4</speed>
        <hdop>3.2</hdop>
      </trkpt>
      <trkpt lat="13.3745196" lon="77.2065751">
        <ele>997.2</ele>
        <time>2022-12-25T07:46:39Z</time>
        <speed>0.2</speed>
        <hdop>3.2</hdop>
      </trkpt>
      <trkpt lat="13.3745193" lon="77.2065747">
        <ele>996.8</ele>
        <time>2022-12-25T07:46:40Z</time>
        <speed>0</speed>
        <hdop>3.2</hdop>
      </trkpt>
      <trkpt lat="13.3745237" lon="77.2065765">
        <ele>996.6</ele>
        <time>2022-12-25T07:46:41Z</time>
        <speed>1</speed>
        <hdop>3.2</hdop>
      </trkpt>
      <trkpt lat="13.3745313" lon="77.2065777">
        <ele>997.2</ele>
        <time>2022-12-25T07:46:42Z</time>
        <speed>0.7</speed>
        <hdop>3.2</hdop>
      </trkpt>
      <trkpt lat="13.3745362" lon="77.2065786">
        <ele>997.9</ele>
        <time>2022-12-25T07:46:43Z</time>
        <speed>0.6</speed>
        <hdop>3.2</hdop>
      </trkpt>
      <trkpt lat="13.3745416" lon="77.2065801">
        <ele>998.1</ele>
        <time>2022-12-25T07:46:44Z</time>
        <speed>0.7</speed>
        <hdop>3.2</hdop>
      </trkpt>
      <trkpt lat="13.3745455" lon="77.2065798">
        <ele>999.9</ele>
        <time>2022-12-25T07:46:45Z</time>
        <speed>0.5</speed>
        <hdop>3.2</hdop>
      </trkpt>
      <trkpt lat="13.3745484" lon="77.2065783">
        <ele>999.7</ele>
        <time>2022-12-25T07:46:46Z</time>
        <speed>0.5</speed>
        <hdop>3.2</hdop>
      </trkpt>
      <trkpt lat="13.3745514" lon="77.2065761">
        <ele>999.2</ele>
        <time>2022-12-25T07:46:47Z</time>
        <speed>0.5</speed>
        <hdop>3.2</hdop>
      </trkpt>
      <trkpt lat="13.3745542" lon="77.2065725">
        <ele>999.5</ele>
        <time>2022-12-25T07:46:48Z</time>
        <speed>0.5</speed>
        <hdop>3.2</hdop>
      </trkpt>
      <trkpt lat="13.37456" lon="77.2065674">
        <ele>1000.0</ele>
        <time>2022-12-25T07:46:49Z</time>
        <speed>0.9</speed>
        <hdop>3.2</hdop>
      </trkpt>
      <trkpt lat="13.3745629" lon="77.2065615">
        <ele>962.6</ele>
        <time>2022-12-25T07:46:50Z</time>
        <speed>0</speed>
        <hdop>3.2</hdop>
      </trkpt>
      <trkpt lat="13.3745619" lon="77.2065603">
        <ele>975.3</ele>
        <time>2022-12-25T07:46:52Z</time>
        <speed>0</speed>
        <hdop>3.2</hdop>
      </trkpt>
      <trkpt lat="13.3746624" lon="77.2065046">
        <ele>998.1</ele>
        <time>2022-12-25T07:47:49Z</time>
        <speed>0.6</speed>
        <hdop>3.2</hdop>
      </trkpt>
      <trkpt lat="13.3746592" lon="77.2064887">
        <ele>998.8</ele>
        <time>2022-12-25T07:47:50Z</time>
        <speed>1.2</speed>
        <hdop>3.2</hdop>
      </trkpt>
      <trkpt lat="13.3746562" lon="77.2064972">
        <ele>1002.8</ele>
        <time>2022-12-25T07:48:21Z</time>
        <speed>0</speed>
        <hdop>3.2</hdop>
      </trkpt>
      <trkpt lat="13.3746554" lon="77.2064981">
        <ele>1002.5</ele>
        <time>2022-12-25T07:48:22Z</time>
        <speed>0</speed>
        <hdop>3.2</hdop>
      </trkpt>
      <trkpt lat="13.3746675" lon="77.206486">
        <ele>998.7</ele>
        <time>2022-12-25T07:50:21Z</time>
        <speed>0.5</speed>
        <hdop>3.2</hdop>
      </trkpt>
      <trkpt lat="13.3746661" lon="77.206492">
        <ele>998.8</ele>
        <time>2022-12-25T07:50:22Z</time>
        <speed>0.5</speed>
        <hdop>4.3</hdop>
      </trkpt>
      <trkpt lat="13.3746672" lon="77.2064872">
        <ele>997.8</ele>
        <time>2022-12-25T07:50:23Z</time>
        <speed>0</speed>
        <hdop>3.2</hdop>
      </trkpt>
      <trkpt lat="13.3746664" lon="77.2064876">
        <ele>997.8</ele>
        <time>2022-12-25T07:50:24Z</time>
        <speed>0</speed>
        <hdop>3.2</hdop>
      </trkpt>
      <trkpt lat="13.3746662" lon="77.2064891">
        <ele>997.5</ele>
        <time>2022-12-25T07:50:25Z</time>
        <speed>0</speed>
        <hdop>3.2</hdop>
      </trkpt>
      <trkpt lat="13.3746646" lon="77.2064898">
        <ele>997.6</ele>
        <time>2022-12-25T07:50:26Z</time>
        <speed>0</speed>
        <hdop>3.2</hdop>
      </trkpt>
      <trkpt lat="13.3746634" lon="77.2064892">
        <ele>997.8</ele>
        <time>2022-12-25T07:50:27Z</time>
        <speed>0</speed>
        <hdop>3.2</hdop>
      </trkpt>
      <trkpt lat="13.3746619" lon="77.2064888">
        <ele>998.3</ele>
        <time>2022-12-25T07:50:28Z</time>
        <speed>0</speed>
        <hdop>3.2</hdop>
      </trkpt>
      <trkpt lat="13.3746612" lon="77.2064895">
        <ele>998.6</ele>
        <time>2022-12-25T07:50:29Z</time>
        <speed>0</speed>
        <hdop>3.2</hdop>
      </trkpt>
      <trkpt lat="13.37466" lon="77.206492">
        <ele>998.8</ele>
        <time>2022-12-25T07:50:30Z</time>
        <speed>0</speed>
        <hdop>3.2</hdop>
      </trkpt>
      <trkpt lat="13.3746602" lon="77.2064921">
        <ele>998.9</ele>
        <time>2022-12-25T07:50:31Z</time>
        <speed>0</speed>
        <hdop>3.2</hdop>
      </trkpt>
      <trkpt lat="13.374656" lon="77.2064818">
        <ele>999.0</ele>
        <time>2022-12-25T07:50:32Z</time>
        <speed>0.9</speed>
        <hdop>3.2</hdop>
      </trkpt>
      <trkpt lat="13.3746645" lon="77.2064697">
        <ele>999.6</ele>
        <time>2022-12-25T07:50:33Z</time>
        <speed>1.1</speed>
        <hdop>3.2</hdop>
      </trkpt>
      <trkpt lat="13.3746768" lon="77.2064633">
        <ele>1000.0</ele>
        <time>2022-12-25T07:50:34Z</time>
        <speed>1.2</speed>
        <hdop>3.2</hdop>
      </trkpt>
      <trkpt lat="13.3746899" lon="77.2064514">
        <ele>999.3</ele>
        <time>2022-12-25T07:50:35Z</time>
        <speed>2.2</speed>
        <hdop>3.2</hdop>
      </trkpt>
      <trkpt lat="13.3747332" lon="77.2064155">
        <ele>991.6</ele>
        <time>2022-12-25T07:50:46Z</time>
        <speed>1</speed>
        <hdop>4.3</hdop>
      </trkpt>
      <trkpt lat="13.3747371" lon="77.2063943">
        <ele>992.6</ele>
        <time>2022-12-25T07:50:47Z</time>
        <speed>0.9</speed>
        <hdop>4.3</hdop>
      </trkpt>
      <trkpt lat="13.3747474" lon="77.206371">
        <ele>994.1</ele>
        <time>2022-12-25T07:50:48Z</time>
        <speed>1.5</speed>
        <hdop>4.3</hdop>
      </trkpt>
      <trkpt lat="13.3747575" lon="77.206352">
        <ele>996.1</ele>
        <time>2022-12-25T07:50:49Z</time>
        <speed>1.5</speed>
        <hdop>3.2</hdop>
      </trkpt>
      <trkpt lat="13.3747707" lon="77.2063406">
        <ele>996.0</ele>
        <time>2022-12-25T07:50:50Z</time>
        <speed>1.3</speed>
        <hdop>3.2</hdop>
      </trkpt>
      <trkpt lat="13.3747767" lon="77.2063406">
        <ele>997.7</ele>
        <time>2022-12-25T07:50:51Z</time>
        <speed>0.7</speed>
        <hdop>3.2</hdop>
      </trkpt>
      <trkpt lat="13.374782" lon="77.2063428">
        <ele>998.0</ele>
        <time>2022-12-25T07:50:52Z</time>
        <speed>0.7</speed>
        <hdop>3.2</hdop>
      </trkpt>
      <trkpt lat="13.3747872" lon="77.2063468">
        <ele>998.4</ele>
        <time>2022-12-25T07:50:53Z</time>
        <speed>0.7</speed>
        <hdop>3.2</hdop>
      </trkpt>
      <trkpt lat="13.3747928" lon="77.2063524">
        <ele>998.9</ele>
        <time>2022-12-25T07:50:54Z</time>
        <speed>0.8</speed>
        <hdop>3.2</hdop>
      </trkpt>
      <trkpt lat="13.3747989" lon="77.2063569">
        <ele>1000.9</ele>
        <time>2022-12-25T07:50:55Z</time>
        <speed>0.8</speed>
        <hdop>3.2</hdop>
      </trkpt>
      <trkpt lat="13.3748051" lon="77.2063619">
        <ele>1001.4</ele>
        <time>2022-12-25T07:50:56Z</time>
        <speed>0.8</speed>
        <hdop>3.2</hdop>
      </trkpt>
      <trkpt lat="13.3748132" lon="77.2063676">
        <ele>1001.8</ele>
        <time>2022-12-25T07:50:57Z</time>
        <speed>0.9</speed>
        <hdop>3.2</hdop>
      </trkpt>
      <trkpt lat="13.3748223" lon="77.2063735">
        <ele>1002.0</ele>
        <time>2022-12-25T07:50:58Z</time>
        <speed>1</speed>
        <hdop>3.2</hdop>
      </trkpt>
      <trkpt lat="13.3748333" lon="77.2063803">
        <ele>1003.5</ele>
        <time>2022-12-25T07:50:59Z</time>
        <speed>1.1</speed>
        <hdop>3.2</hdop>
      </trkpt>
      <trkpt lat="13.3748828" lon="77.2064236">
        <ele>1004.7</ele>
        <time>2022-12-25T07:51:09Z</time>
        <speed>0.9</speed>
        <hdop>3.2</hdop>
      </trkpt>
      <trkpt lat="13.3748896" lon="77.2064266">
        <ele>1005.1</ele>
        <time>2022-12-25T07:51:10Z</time>
        <speed>0</speed>
        <hdop>3.2</hdop>
      </trkpt>
      <trkpt lat="13.3748902" lon="77.2064263">
        <ele>1005.9</ele>
        <time>2022-12-25T07:51:11Z</time>
        <speed>0</speed>
        <hdop>3.2</hdop>
      </trkpt>
      <trkpt lat="13.3748905" lon="77.2064267">
        <ele>1005.7</ele>
        <time>2022-12-25T07:51:12Z</time>
        <speed>0</speed>
        <hdop>3.2</hdop>
      </trkpt>
      <trkpt lat="13.3749001" lon="77.2064292">
        <ele>1007.1</ele>
        <time>2022-12-25T07:51:23Z</time>
        <speed>0</speed>
        <hdop>3.2</hdop>
      </trkpt>
      <trkpt lat="13.3749001" lon="77.2064296">
        <ele>1007.1</ele>
        <time>2022-12-25T07:51:24Z</time>
        <speed>0</speed>
        <hdop>3.2</hdop>
      </trkpt>
      <trkpt lat="13.3749033" lon="77.2064267">
        <ele>1008.5</ele>
        <time>2022-12-25T07:51:25Z</time>
        <speed>0.6</speed>
        <hdop>3.2</hdop>
      </trkpt>
      <trkpt lat="13.3749038" lon="77.2064144">
        <ele>1007.8</ele>
        <time>2022-12-25T07:51:26Z</time>
        <speed>0</speed>
        <hdop>3.2</hdop>
      </trkpt>
      <trkpt lat="13.374862" lon="77.2064123">
        <ele>1006.7</ele>
        <time>2022-12-25T07:51:54Z</time>
        <speed>1.7</speed>
        <hdop>3.2</hdop>
      </trkpt>
      <trkpt lat="13.374851" lon="77.2063874">
        <ele>1004.6</ele>
        <time>2022-12-25T07:51:55Z</time>
        <speed>1.6</speed>
        <hdop>3.2</hdop>
      </trkpt>
      <trkpt lat="13.3748471" lon="77.2063737">
        <ele>1002.2</ele>
        <time>2022-12-25T07:51:56Z</time>
        <speed>1.4</speed>
        <hdop>3.2</hdop>
      </trkpt>
      <trkpt lat="13.3748398" lon="77.2063666">
        <ele>1002.0</ele>
        <time>2022-12-25T07:51:57Z</time>
        <speed>0.9</speed>
        <hdop>4.3</hdop>
      </trkpt>
      <trkpt lat="13.3748284" lon="77.206362">
        <ele>1001.1</ele>
        <time>2022-12-25T07:51:58Z</time>
        <speed>1.4</speed>
        <hdop>3.2</hdop>
      </trkpt>
      <trkpt lat="13.3748203" lon="77.2063571">
        <ele>1002.8</ele>
        <time>2022-12-25T07:51:59Z</time>
        <speed>0.9</speed>
        <hdop>3.2</hdop>
      </trkpt>
      <trkpt lat="13.3748188" lon="77.2063517">
        <ele>1002.2</ele>
        <time>2022-12-25T07:52:00Z</time>
        <speed>0.8</speed>
        <hdop>3.2</hdop>
      </trkpt>
      <trkpt lat="13.3748206" lon="77.2063468">
        <ele>1000.4</ele>
        <time>2022-12-25T07:52:01Z</time>
        <speed>0.8</speed>
        <hdop>3.2</hdop>
      </trkpt>
      <trkpt lat="13.3748263" lon="77.2063419">
        <ele>1002.0</ele>
        <time>2022-12-25T07:52:02Z</time>
        <speed>0.9</speed>
        <hdop>3.2</hdop>
      </trkpt>
      <trkpt lat="13.3748318" lon="77.2063357">
        <ele>1001.8</ele>
        <time>2022-12-25T07:52:03Z</time>
        <speed>0.8</speed>
        <hdop>3.2</hdop>
      </trkpt>
      <trkpt lat="13.3748388" lon="77.2063288">
        <ele>1001.8</ele>
        <time>2022-12-25T07:52:04Z</time>
        <speed>0.7</speed>
        <hdop>3.2</hdop>
      </trkpt>
    </trkseg>
  </trk>
</gpx>
